// -*- C -*-
// startup script for GenericMonTool tests

ApplicationMgr.Dlls += { "StoreGate", "AthenaMonitoringKernel" };
ApplicationMgr.ExtSvc += { "ClassIDSvc" };
ApplicationMgr.ExtSvc += { "StoreGateSvc", "StoreGateSvc/DetectorStore", "StoreGateSvc/HistoryStore" };
ApplicationMgr.ExtSvc += { "ActiveStoreSvc" };
ApplicationMgr.ExtSvc += { "ToolSvc" };
ApplicationMgr.ExtSvc += { "THistSvc/THistSvc" };
AuditorSvc.Auditors  += { "AlgContextAuditor"};
StoreGateSvc.ActivateHistory = false;
THistSvc.Output= {"EXPERT DATAFILE='expert-monitoring.root' OPT='RECREATE'" };
ToolSvc.MonTool.HistPath="TestGroup";
ToolSvc.MonTool.Histograms =  {'{"alias": "Eta", "allvars": ["Eta"], "convention": "", "merge": "", "path": "EXPERT", "title": "#eta of Clusters; #eta; number of RoIs", "treeDef": "", "type": "TH1F", "weight": "", "cutMask": "", "xarray": [], "xbins": 50, "xlabels": [], "xmax": 2.50, "xmin": -2.50, "xvar": "Eta", "yarray": [], "ybins": 0.0, "ylabels": [], "ymax": 0.0, "ymin": 0.0, "yvar": "", "zbins": 0, "zlabels": [], "zmax": 0.0, "zmin": 0.0, "zvar": "", "Sumw2": false, "kLBNHistoryDepth": 0, "kAddBinsDynamically": false, "kRebinAxes": false, "kCanRebin": false, "kVec": false, "kVecUO": false, "kCumulative": false, "kLive": false}'};
ToolSvc.MonTool.Histograms += {'{"alias": "Phi", "allvars": ["Phi"], "convention": "", "merge": "", "path": "EXPERT", "title": "#phi of Clusters; #phi; number of RoIs", "treeDef": "", "type": "TH1F", "weight": "", "cutMask": "", "xarray": [], "xbins": 63, "xlabels": [], "xmax": 3.15, "xmin": -3.15, "xvar": "Phi", "yarray": [], "ybins": 0.0, "ylabels": [], "ymax": 0.0, "ymin": 0.0, "yvar": "", "zbins": 0, "zlabels": [], "zmax": 0.0, "zmin": 0.0, "zvar": "", "Sumw2": false, "kLBNHistoryDepth": 0, "kAddBinsDynamically": false, "kRebinAxes": false, "kCanRebin": false, "kVec": false, "kVecUO": false, "kCumulative": false, "kLive": false}'};
ToolSvc.MonTool.Histograms += {'{"alias": "pt", "allvars": ["pt"], "convention": "", "merge": "", "path": "EXPERT", "title": "pt; pt; transverse momentum", "treeDef": "", "type": "TH1F", "weight": "Weight", "cutMask": "", "xarray": [], "xbins": 10, "xlabels": [], "xmax": 10, "xmin": 0, "xvar": "pt", "yarray": [], "ybins": 0.0, "ylabels": [], "ymax": 0.0, "ymin": 0.0, "yvar": "", "zbins": 0, "zlabels": [], "zmax": 0.0, "zmin": 0.0, "zvar": "", "Sumw2": false, "kLBNHistoryDepth": 0, "kAddBinsDynamically": false, "kRebinAxes": false, "kCanRebin": false, "kVec": false, "kVecUO": false, "kCumulative": false, "kLive": false}'};
ToolSvc.MonTool.Histograms += {'{"alias": "Phi_vs_Eta", "allvars": ["Eta", "Phi"], "convention": "", "merge": "", "path": "EXPERT", "title": "#eta vs #phi of Clusters; #eta; #phi; number of RoIs", "treeDef": "", "type": "TH2F", "weight": "", "cutMask": "", "xarray": [], "xbins": 50, "xlabels": [], "xmax": 2.5, "xmin": -2.5, "xvar": "Eta", "yarray": [], "ybins": 63, "ylabels": [], "ymax": 3.15, "ymin": -3.15, "yvar": "Phi", "zbins": 0, "zlabels": [], "zmax": 0.0, "zmin": 0.0, "zvar": "", "Sumw2": false, "kLBNHistoryDepth": 0, "kAddBinsDynamically": false, "kRebinAxes": false, "kCanRebin": false, "kVec": false, "kVecUO": false, "kCumulative": false, "kLive": false}'};
